{
    "jet_collection": "AntiKt4EMTopoJets",
    "calibration": {},
    "selection": {
        "minimum_jet_pt": 20000,
        "maximum_jet_absolute_eta": 2.5,
        "jet_cleaning": "none"
    },
    "vertex_collection": "PrimaryVertices",
    "dl2_configs": [],
    "variables": {
        "jet" : {
            "ints" : [
                "isDisplaced",
                "GhostTrackCount",
                "jetPtRank",
                "HadronConeExclTruthLabelID",
                "HadronConeExclExtendedTruthLabelID",
                "PartonTruthLabelID",
                "GhostBHadronsFinalCount",
                "GhostCHadronsFinalCount",
                "n_tracks_from_jet"
            ],
            "floats": [
                "pt",
                "eta",
                "mass",
                "energy",
                "displacedPtFraction",
                "GhostBHadronsFinalPt",
                "parentLLPMassGeV",
                "parentLLPLifetime"
            ]
        },
        "btagging" : {
            "ints" : [],
            "floats": [],
            "chars": []
        },
        "event": {
            "customs" : [
                "mcEventWeight",
                "eventNumber",
                "averageInteractionsPerCrossing",
                "actualInteractionsPerCrossing",
                "nPrimaryVertices",
                "isRun3"
            ]
        },
        "default_mapping": {
            "file": "fragments/default-mapping.json"
        }
    },
    "tracks": [
        {
            "ip_prefix": "simpleIp_",
            "n_to_save": 40,
            "selection": {
                "pt_minimum": 500,
                "abs_eta_maximum": 2.5,
                "d0_maximum": 300,
                "z0_maximum": 300,
                "si_hits_minimum": 7,
                "si_shared_maximum": 1,
                "si_holes_maximum": 2,
                "pix_holes_maximum": 1
            },
            "sort_order": "abs_beamspot_d0",
            "input_name": "GhostTrackLRTMerged",
            "output_name": "tracks_from_jet",
            "variables": {
                "uchars": [
                    "numberOfInnermostPixelLayerHits",
                    "numberOfPixelHits",
                    "numberOfPixelHoles",
                    "numberOfPixelSharedHits",
                    "numberOfSCTHits",
                    "numberOfSCTHoles",
                    "numberOfSCTSharedHits"
                ],
                "floats": [
                    "qOverP",
                    "chiSquared",
                    "radiusOfFirstHit"
                ],
                "halves": [
                    "numberDoF",
                    "theta"
                ],
                "customs": [
                    "pt",
                    "deta",
                    "z0RelativeToBeamspot",
                    "qOverPUncertainty"
                ],
                "half_precision_customs":[
                    "d0",
                    "z0SinTheta",
                    "eta",
                    "d0Uncertainty",
                    "z0SinThetaUncertainty",
                    "phiUncertainty",
                    "thetaUncertainty",
                    "dphi",
                    "dr",
                    "ptfrac",
                    "z0RelativeToBeamspotUncertainty",
                    "lifetimeSignedD0",
                    "IP2D_signed_d0",
                    "lifetimeSignedZ0SinTheta",
                    "lifetimeSignedD0Significance",
                    "lifetimeSignedZ0SinThetaSignificance"
                ],
                "ints": [
                    "truthOriginLabel",
                    "truthVertexIndex",
                    "VSIVertexIndex"
                ]
            }
        }
    ],
    "truths": [
        {
            "association": {
                "pt_minimum": 500,
                "abs_eta_maximum": 2.5,
                "dr_maximum": 0.4,
                "particles": "stableNonGeant",
                "containers": [
                    "TruthParticles"
                ]
            },
            "decorate_summary": true
        }
    ],
    "decorate": {
        "jet_aug": false,
        "btag_jes": false,
        "soft_muon": false,
        "track_truth_llp_info": true,
        "track_sv_info": false,
        "track_vsi_info": true,
        "do_displaced_jet": true
    }
}
