{   
    "tau" : {
        "mc21":false,
        "mc24":false,
        "data":false,
        "offline_jets": false,
        "do_track_matching": true,
        "emtopo_jets": false,
        "tau_jets": true,
        "additional_chains": [],
        "associate_hits": false,
        "dumper": {
            "jet_collection": "tempTauJets",
            "calibration": {},
            "selection": {
                "minimum_jet_pt": 20000,
                "maximum_jet_absolute_eta": 2.5
            },
            "vertex_collection": "HLT_IDVertex_Tau",
            "variables": {
                "jet" : {
                    "ints": [
                        "HadronConeExclTruthLabelID",
                        "HadronConeExclExtendedTruthLabelID"
                    ],
                    "floats": [
                        "HadronConeExclTruthLabelPt",
                        "pt"
                    ],
                    "halves": [
                        "eta"
                    ]
                },
                "event": {
                    "compressed": [
                        "mcEventWeight",
                        "eventNumber",
                        "averageInteractionsPerCrossing",
                        "actualInteractionsPerCrossing",
                        "nPrimaryVertices",
                        "primaryVertexBeamspotZ",
                        "primaryVertexDetectorZUncertainty"
                    ]
                },
                "default_mapping": {
                    "file": "fragments/default-mapping.json"
                }
            },
            "tracks": [
                {
                    "file": "fragments/tracks-all-on-jet.json",
                    "input_name": "tempTauJetTracks",
                    "output_name": "tau_tracks",
                    "ip_prefix": "poboyIp_"
                },
                {
                    "file": "fragments/tracks-loose-on-jet.json",
                    "input_name": "tempTauPrecisionTracks",
                    "output_name": "tau_precision_tracks",
                    "ip_prefix": "poboyIp_"
                },
                {
                    "file": "fragments/tracks-loose-on-jet.json",
                    "input_name": "tempTauFastCoreTracks",
                    "output_name": "tau_ftf_core_tracks",
                    "ip_prefix": "poboyIp_"
                },
                {
                    "file": "fragments/tracks-loose-on-jet.json",
                    "input_name": "tempTauFastIsoTracks",
                    "output_name": "tau_ftf_iso_tracks",
                    "ip_prefix": "poboyIp_"
                }
            ],
            "truths": [
                {
                    "file": "fragments/overlap-leptons.json"
                }
            ],
            "decorate": {
                "jet_aug": false,
                "btag_jes": false,
                "soft_muon": false,
                "track_sv_info": false
            }
        }
    }
}

