{
    "jet_collection": "AntiKt4HIJets",
    "calibration": {
        "collection": "AntiKt4HI",
        "configuration": "JES_MC16_HI_Jan2021_5TeV.config",
        "seq": "EtaJES",
        "area": "00-04-82",
        "jvt_cut": 0
    },
    "selection": {
        "minimum_jet_pt": 20000,
        "maximum_jet_absolute_eta": 2.5
    },
    "vertex_collection": "PrimaryVertices",
    "dl2_configs": [],
    "variables": {
        "jet" : {
            "ints" : [
                "GhostBHadronsFinalCount",
                "GhostCHadronsFinalCount",
                "HadronConeExclTruthLabelID",
                "HadronConeExclExtendedTruthLabelID",
                "PartonTruthLabelID",
                "jetPtRank"
            ],
            "floats": [
                "GhostBHadronsFinalPt",
                "pt",
                "eta",
                "phi",
                "mass",
                "energy"
            ]
        },
        "btagging" : {
            "ints" : [
                "JetFitter_nVTX",
                "JetFitter_nSingleTracks",
                "JetFitter_nTracksAtVtx",
                "JetFitter_N2Tpair",
                "SV1_N2Tpair",
                "SV1_NGTinSvx",
                "JetFitterSecondaryVertex_nTracks"
            ],
            "floats": [
                "pt_btagJes",
                "eta_btagJes",
                "absEta_btagJes",
                "scalarSumTrackPt",
                "JetFitter_energyFraction",
                "JetFitter_mass",
                "JetFitter_significance3d",
                "JetFitter_deltaphi",
                "JetFitter_deltaeta",
                "JetFitter_massUncorr",
                "JetFitter_dRFlightDir",
                "SV1_masssvx",
                "SV1_efracsvx",
                "SV1_significance3d",
                "SV1_dstToMatLay",
                "SV1_deltaR",
                "SV1_Lxy",
                "SV1_L3d",
                "JetFitter_deltaR",
                "JetFitterSecondaryVertex_displacement3d",
                "JetFitterSecondaryVertex_displacement2d",
                "JetFitterSecondaryVertex_mass",
                "JetFitterSecondaryVertex_energy",
                "JetFitterSecondaryVertex_energyFraction",
                "JetFitterSecondaryVertex_minimumTrackRelativeEta",
                "JetFitterSecondaryVertex_maximumTrackRelativeEta",
                "JetFitterSecondaryVertex_averageTrackRelativeEta",
                "JetFitterSecondaryVertex_maximumAllJetTrackRelativeEta",
                "JetFitterSecondaryVertex_minimumAllJetTrackRelativeEta",
                "JetFitterSecondaryVertex_averageAllJetTrackRelativeEta",
                "DL1_pu",
                "DL1_pc",
                "DL1_pb"
            ],
            "chars": [
                "JetFitter_isDefaults",
                "SV1_isDefaults",
                "JetFitterSecondaryVertex_isDefaults"
            ]
        },
        "event": {
            "customs" : [
                "mcEventWeight",
                "eventNumber",
                "averageInteractionsPerCrossing",
                "actualInteractionsPerCrossing",
                "nPrimaryVertices",
                "isRun3",
                "FCal_Et_TeV"
        ]
        },
        "default_mapping": {
            "file": "fragments/default-mapping.json"
        }
    },
    "tracks": [
        {
            "n_to_save": 100,
            "selection": {
                "file": "fragments/ip3d-loose-track-cuts.json"
            },
            "sort_order": "abs_beamspot_d0",
            "btagging_link": "btaggingLink",
            "input_name": "BTagTrackToJetAssociator",
            "output_name": "tracks",
            "variables": {
                "file": "fragments/pflow-track-variables.json"
            },
            "ip_prefix": "btagIp_"
        }
    ],
    "truths": [
        {
            "file": "fragments/overlap-leptons.json"
        }
    ],
    "ca_blocks" : [
        {
            "block" : "MCTruthClassifier"
        },
        {
            "block" : "PoorMansIpAugmenter"
        },
        {
            "block" : "BTagJetLinker",
            "jet_collection" : "AntiKt4HI"
        }
    ],
    "decorate": {
        "jet_aug": true,
        "btag_jes": true,
        "do_heavyions": true,
        "soft_muon": false,
        "track_sv_info": false
    },
    "btagging_link": "btaggingLink"
}
